<?xml version="1.0" encoding="UTF-8" standalone="no"?>
<svg
   style="enable-background:new"
   height="512"
   viewBox="0 0 512 512"
   width="512"
   version="1.1"
   id="svg35"
   sodipodi:docname="logo.svg"
   inkscape:version="1.1.2 (0a00cf5339, 2022-02-04)"
   xmlns:inkscape="http://www.inkscape.org/namespaces/inkscape"
   xmlns:sodipodi="http://sodipodi.sourceforge.net/DTD/sodipodi-0.dtd"
   xmlns="http://www.w3.org/2000/svg"
   xmlns:svg="http://www.w3.org/2000/svg"
   xmlns:rdf="http://www.w3.org/1999/02/22-rdf-syntax-ns#"
   xmlns:cc="http://creativecommons.org/ns#"
   xmlns:dc="http://purl.org/dc/elements/1.1/">
  <metadata
     id="metadata39">
    <rdf:RDF>
      <cc:Work
         rdf:about="">
        <dc:format>image/svg+xml</dc:format>
        <dc:type
           rdf:resource="http://purl.org/dc/dcmitype/StillImage" />
      </cc:Work>
    </rdf:RDF>
  </metadata>
  <sodipodi:namedview
     pagecolor="#ffffff"
     bordercolor="#666666"
     borderopacity="1"
     objecttolerance="10"
     gridtolerance="10"
     guidetolerance="10"
     inkscape:pageopacity="0"
     inkscape:pageshadow="2"
     inkscape:window-width="1850"
     inkscape:window-height="1136"
     id="namedview37"
     showgrid="false"
     inkscape:zoom="24.837126"
     inkscape:cx="500.9235"
     inkscape:cy="498.06488"
     inkscape:window-x="0"
     inkscape:window-y="0"
     inkscape:window-maximized="1"
     inkscape:current-layer="layer1"
     inkscape:pagecheckerboard="0" />
  <defs
     id="defs7">
    <linearGradient
       id="a"
       y2="494"
       gradientUnits="userSpaceOnUse"
       x2="256"
       gradientTransform="matrix(1,0,0,1.076,0,-19.36)"
       y1="18"
       x1="256">
      <stop
         style="stop-color:#7c0396;stop-opacity:1"
         offset="0"
         id="stop2" />
      <stop
         style="stop-color:#f3befe;stop-opacity:1"
         offset="1"
         id="stop4" />
    </linearGradient>
  </defs>
  <path
     d="m -208.3,605.6 c -7.842,0 -14.55,5.029 -17.32,12.19 -0.0612,-6.7e-4 -0.1208,0 -0.1823,0 -7.088,0 -12.83,6.002 -12.83,13.41 0,7.404 5.746,13.41 12.83,13.41 h 17.5 16.33 c 5.155,0 9.333,-4.365 9.333,-9.75 0,-4.543 -2.974,-8.363 -7,-9.445 0.001,-0.1029 0,-0.2015 0,-0.3047 0,-10.77 -8.357,-19.5 -18.67,-19.5 z"
     style="color:#000000;display:none;fill:#ffffff;stroke:#cccccc;stroke-width:4;enable-background:accumulate"
     id="path19" />
  <path
     style="color:#000000;display:none;fill:none;stroke:#cccccc;stroke-width:4;enable-background:accumulate"
     d="m 288.9,828.1 c -6.349,0 -11.78,4.072 -14.02,9.867 -0.0496,-5.5e-4 -0.0978,0 -0.1476,0 -5.738,0 -10.39,4.86 -10.39,10.85 0,5.995 4.652,10.85 10.39,10.85 h 14.17 13.22 c 4.173,0 7.557,-3.534 7.557,-7.894 0,-3.678 -2.408,-6.771 -5.667,-7.647 10e-4,-0.0833 0,-0.1632 0,-0.2467 0,-8.719 -6.766,-15.79 -15.11,-15.79 z"
     id="path21" />
  <g
     style="display:none"
     transform="translate(0,-558.4)"
     id="g33">
    <path
       d="M 166.1,576.4 H 346 c 145.3,0 166.1,20.74 166.1,165.9 v 144.2 c 0,145.2 -20.76,165.9 -166.1,165.9 H 166.1 C 20.8,1052.4 0,1032.4 0,886.9 V 742.7 C 0,597.5 20.76,576.8 166.1,576.8 Z"
       style="display:inline;fill:#0000ff;fill-opacity:0.08118;stroke:#0000ff"
       id="path23" />
    <circle
       style="color:#000000;display:inline;fill:#0000ff;fill-opacity:0.08118;stroke:#0000ff;stroke-width:0.8333;enable-background:accumulate"
       cx="256"
       transform="matrix(1.2,0,0,1.2,-51.2,528.8)"
       cy="238"
       r="120"
       id="circle25" />
    <rect
       style="color:#000000;display:inline;fill:#0000ff;fill-opacity:0.08118;stroke:#0000ff;stroke-linecap:round;stroke-linejoin:round;enable-background:accumulate"
       height="272"
       width="272"
       y="678.40002"
       x="120"
       id="rect27" />
    <rect
       style="color:#000000;display:inline;fill:#0000ff;fill-opacity:0.08118;stroke:#0000ff;stroke-linecap:round;stroke-linejoin:round;enable-background:accumulate"
       height="240"
       width="304"
       y="694.40002"
       x="104"
       id="rect29" />
    <rect
       style="color:#000000;display:inline;fill:#0000ff;fill-opacity:0.08118;stroke:#0000ff;stroke-linecap:round;stroke-linejoin:round;enable-background:accumulate"
       height="304"
       width="240"
       y="662.40002"
       x="136"
       id="rect31" />
  </g>
  <g
     inkscape:groupmode="layer"
     id="layer1"
     inkscape:label="back"
     style="display:inline">
    <rect
       style="color:#000000;fill:url(#a);enable-background:accumulate"
       height="512"
       width="512"
       y="0"
       x="0"
       id="rect9" />
    <g
       style="enable-background:new"
       transform="translate(0,18)"
       id="g17">
      <path
         style="color:#000000;opacity:0.3;fill:#ffffff;enable-background:accumulate"
         d="M 0,0 V 512 H 256 V 0 Z"
         id="path13"
         inkscape:connector-curvature="0"
         sodipodi:nodetypes="ccccc"
         transform="translate(0,-18)" />
    </g>
  </g>
  <g
     inkscape:groupmode="layer"
     id="layer2"
     inkscape:label="front"
     style="display:inline;opacity:0.96"
     sodipodi:insensitive="true">
    <rect
       style="fill:#efbefa;fill-opacity:1;stroke:#484149;stroke-width:10;stroke-linecap:round;stroke-linejoin:round;stroke-miterlimit:4;stroke-dasharray:none;stroke-opacity:1"
       id="rect888"
       width="384"
       height="404"
       x="64"
       y="44"
       rx="30"
       ry="30" />
    <path
       style="fill:#484149;fill-opacity:1;stroke:none;stroke-width:1.1907px;stroke-linecap:butt;stroke-linejoin:miter;stroke-opacity:1"
       d="M 63.131299,90.188358 H 448.36106 V 74.66194 L 440.96746,56.505925 425.45934,43.811821 H 90.831766 L 67.900442,58.438457 Z"
       id="path894"
       inkscape:connector-curvature="0"
       sodipodi:nodetypes="cccccccc" />
    <rect
       style="fill:#58395d;fill-opacity:1;stroke:none;stroke-width:9.82988;stroke-linecap:round;stroke-linejoin:round;stroke-miterlimit:4;stroke-dasharray:none;stroke-opacity:1;paint-order:markers fill stroke"
       id="rect857"
       width="45"
       height="180"
       x="85"
       y="252"
       rx="4.9394531" />
    <rect
       rx="4.9394531"
       y="242"
       x="135"
       height="190"
       width="45"
       id="rect859"
       style="fill:#58395d;fill-opacity:1;stroke:none;stroke-width:10.0992;stroke-linecap:round;stroke-linejoin:round;stroke-miterlimit:4;stroke-dasharray:none;stroke-opacity:1;paint-order:markers fill stroke" />
    <rect
       style="fill:#58395d;fill-opacity:1;stroke:none;stroke-width:11.5846;stroke-linecap:round;stroke-linejoin:round;stroke-miterlimit:4;stroke-dasharray:none;stroke-opacity:1;paint-order:markers fill stroke"
       id="rect861"
       width="45"
       height="250"
       x="185"
       y="182"
       rx="4.9394531" />
    <rect
       rx="4.9394531"
       y="222"
       x="235"
       height="210"
       width="45"
       id="rect863"
       style="fill:#58395d;fill-opacity:1;stroke:none;stroke-width:10.6175;stroke-linecap:round;stroke-linejoin:round;stroke-miterlimit:4;stroke-dasharray:none;stroke-opacity:1;paint-order:markers fill stroke" />
    <rect
       style="fill:#58395d;fill-opacity:1;stroke:none;stroke-width:11.814;stroke-linecap:round;stroke-linejoin:round;stroke-miterlimit:4;stroke-dasharray:none;stroke-opacity:1;paint-order:markers fill stroke"
       id="rect865"
       width="45"
       height="260"
       x="285"
       y="172"
       rx="4.9394531" />
    <rect
       rx="4.9394531"
       y="272"
       x="335"
       height="160"
       width="45"
       id="rect867"
       style="fill:#58395d;fill-opacity:1;stroke:none;stroke-width:9.2677;stroke-linecap:round;stroke-linejoin:round;stroke-miterlimit:4;stroke-dasharray:none;stroke-opacity:1;paint-order:markers fill stroke" />
    <rect
       style="fill:#58395d;fill-opacity:1;stroke:none;stroke-width:10.9166;stroke-linecap:round;stroke-linejoin:round;stroke-miterlimit:4;stroke-dasharray:none;stroke-opacity:1;paint-order:markers fill stroke"
       id="rect869"
       width="45"
       height="222"
       x="385"
       y="210"
       rx="4.9394531" />
  </g>
  <g
     inkscape:groupmode="layer"
     id="layer3"
     inkscape:label="clock"
     style="display:inline"
     sodipodi:insensitive="true">
    <g
       id="g855"
       transform="matrix(0.93012731,0,0,0.93012731,17.854471,61.378376)">
      <circle
         r="97.380829"
         cy="255.77888"
         cx="255.88724"
         id="path853"
         style="fill:#dfd5e3;fill-opacity:1;stroke:#414649;stroke-width:12.1726;stroke-linecap:square;stroke-linejoin:miter;stroke-miterlimit:4;stroke-dasharray:none;stroke-opacity:1;enable-background:new" />
      <path
         inkscape:connector-curvature="0"
         id="path857"
         d="M 356.26194,254.25693 H 338.8759"
         style="fill:none;stroke:#414649;stroke-width:6.09864;stroke-linecap:round;stroke-linejoin:miter;stroke-miterlimit:4;stroke-dasharray:none;stroke-opacity:1;enable-background:new" />
      <path
         style="fill:none;stroke:#414649;stroke-width:6.0863;stroke-linecap:round;stroke-linejoin:miter;stroke-miterlimit:4;stroke-dasharray:none;stroke-opacity:1;enable-background:new"
         d="M 172.57019,254.25693 H 155.25442"
         id="path859"
         inkscape:connector-curvature="0" />
      <path
         inkscape:transform-center-y="11.27223"
         inkscape:transform-center-x="2.2054381"
         style="fill:none;stroke:#414649;stroke-width:6.0863;stroke-linecap:round;stroke-linejoin:miter;stroke-miterlimit:4;stroke-dasharray:none;stroke-opacity:1;enable-background:new"
         d="M 257.40912,172.634 V 155.31823"
         id="path859-3"
         inkscape:connector-curvature="0" />
      <path
         inkscape:connector-curvature="0"
         id="path876"
         d="M 257.40912,356.14506 V 338.82929"
         style="fill:none;stroke:#414649;stroke-width:6.0863;stroke-linecap:round;stroke-linejoin:miter;stroke-miterlimit:4;stroke-dasharray:none;stroke-opacity:1;enable-background:new"
         inkscape:transform-center-x="2.2054381"
         inkscape:transform-center-y="11.27223" />
      <path
         inkscape:connector-curvature="0"
         id="path878"
         d="M 276.28933,147.69574 H 238.52581"
         style="fill:none;stroke:#414649;stroke-width:19.0221;stroke-linecap:round;stroke-linejoin:miter;stroke-miterlimit:4;stroke-dasharray:none;stroke-opacity:1;enable-background:new"
         inkscape:transform-center-x="-24.583335"
         inkscape:transform-center-y="2.205437" />
      <path
         inkscape:transform-center-y="16.35752"
         inkscape:transform-center-x="-10.454798"
         style="fill:none;stroke:#414649;stroke-width:14.9615;stroke-linecap:round;stroke-linejoin:miter;stroke-miterlimit:4;stroke-dasharray:none;stroke-opacity:1;enable-background:new"
         d="m 352.29008,203.61544 -18.16811,-23.4976"
         id="path880"
         inkscape:connector-curvature="0" />
      <path
         inkscape:connector-curvature="0"
         id="path882"
         d="m 158.76717,203.61544 18.16811,-23.4976"
         style="fill:none;stroke:#414649;stroke-width:14.9615;stroke-linecap:round;stroke-linejoin:miter;stroke-miterlimit:4;stroke-dasharray:none;stroke-opacity:1;enable-background:new"
         inkscape:transform-center-x="10.454798"
         inkscape:transform-center-y="16.35752" />
      <path
         sodipodi:nodetypes="ccscc"
         inkscape:connector-curvature="0"
         id="path884"
         d="m 224.43059,200.33874 18.01507,61.63451 c 5.52998,9.59342 14.0169,9.39927 20.57073,5.69313 6.58435,-3.72339 11.21026,-11.00418 5.78373,-20.90888 z"
         style="fill:#414649;fill-opacity:1;stroke:none;stroke-width:0.760788px;stroke-linecap:butt;stroke-linejoin:miter;stroke-opacity:1;enable-background:new" />
      <path
         style="fill:#414649;fill-opacity:1;stroke:none;stroke-width:0.760788px;stroke-linecap:butt;stroke-linejoin:miter;stroke-opacity:1;enable-background:new"
         d="m 287.22581,223.40079 -41.00969,19.49137 c -7.83527,7.82451 -5.45116,15.972 -0.17505,21.34327 5.30067,5.39633 13.53064,7.98019 21.69337,0.17505 z"
         id="path886"
         inkscape:connector-curvature="0"
         sodipodi:nodetypes="ccscc" />
    </g>
  </g>
</svg>
